"SOURCE ID: Author/Org, Date, Info",Link,World / Drawdown Region,Specific Geographic Location,Thermal-Moisture Regime,Source Validation Code,Year / Date,License Code,Raw Data Input,Original Units,Conversion calculation,Common Units,Weight,Assumptions,Exclude Data?
Wetland International 2008,https://unfccc.int/files/kyoto_protocol/application/pdf/draftpeatlandco2report.pdf,Middle East and Africa,Africa,,1  - Peer Reviewed,,,129288.0,Km2,12.9288,million hectare,,,
Wetland International 2008,https://unfccc.int/files/kyoto_protocol/application/pdf/draftpeatlandco2report.pdf,OECD90,America,,1  - Peer Reviewed,,,1544428.0,Km2,154.4428,million hectare,,,
Wetland International 2008,https://unfccc.int/files/kyoto_protocol/application/pdf/draftpeatlandco2report.pdf,Asia (Sans Japan),Asia,,1  - Peer Reviewed,,,1557170.0,Km2,155.717,million hectare,,,
Wetland International 2008,https://unfccc.int/files/kyoto_protocol/application/pdf/draftpeatlandco2report.pdf,OECD90,Australia Asia and Pacific Islands,,1  - Peer Reviewed,,,73238.0,Km2,7.3238,million hectare,,,
Wetland International 2008,https://unfccc.int/files/kyoto_protocol/application/pdf/draftpeatlandco2report.pdf,Eastern Europe,Europe,,1  - Peer Reviewed,,,530740.0,Km2,53.074,million hectare,,,
Wetland International 2008,https://unfccc.int/files/kyoto_protocol/application/pdf/draftpeatlandco2report.pdf,,Antarctica and Subantarctica islands,,1  - Peer Reviewed,,,15964.0,Km2,1.5964,million hectare,,,
