"SOURCE ID: Author/Org, Date, Info",Link,World / Drawdown Region,Specific Geographic Location,Thermal-Moisture Regime,Source Validation Code,Year / Date,License Code,Raw Data Input,Original Units,Conversion calculation,Common Units,Weight,Assumptions,Exclude Data?
Lal (2012) - Yu et al (2010),https://agupubs.onlinelibrary.wiley.com/doi/epdf/10.1029/2010GL043584,World,Northern,,1  - Peer Reviewed,2010,yes,547.0,Pg C / 400Mha,1367.5,t C / ha,,Refer abstract,
Lal (2012) - Yu et al (2010),https://agupubs.onlinelibrary.wiley.com/doi/epdf/10.1029/2010GL043584,World,Tropical,,1  - Peer Reviewed,2010,yes,50.0,Pg C / 50Mha,1000.0,t C / ha,,Refer abstract,
Lal (2012) - Yu et al (2010),https://agupubs.onlinelibrary.wiley.com/doi/epdf/10.1029/2010GL043584,World,Southern,,1  - Peer Reviewed,2010,yes,15.0,Pg C / 15Mha,1000.0,t C / ha,,Refer abstract,
Lal (2012) - Yu et al (2010),https://agupubs.onlinelibrary.wiley.com/doi/epdf/10.1029/2010GL043584,World,,,1  - Peer Reviewed,2010,yes,612.0,Pg C / 442Mha,1384.6153846153845,t C / ha,,Refer abstract,
